<svg version="1.1" id="Layer_1" xmlns="http://www.w3.org/2000/svg" xmlns:xlink="http://www.w3.org/1999/xlink" x="0px" y="0px"
	 viewBox="0 0 1366 1780" style="enable-background:new 0 0 1366 1780;" xml:space="preserve">
<path fill="#8ACCD9" class="st0" d="M-2.1-722C331-585,1095-476.5,1373.5-1052V2C1032,500,526,552-18.1,552L-2.1-722z"/>
</svg>
