<svg width="1366" height="988" viewBox="0 0 1366 988" fill="none" xmlns="http://www.w3.org/2000/svg">
<path d="M-36.2921 446.02C633.415 742.669 1201.99 495.324 1436.34 337.488L1421.39 383.099C807.4 800.039 193.704 671.057 -72.905 557.67L-36.2921 446.02Z" fill="#E50044"/>
</svg>
