<svg width="33" height="26" viewBox="0 0 33 26" fill="none" xmlns="http://www.w3.org/2000/svg">
<path d="M10.2469 24.8039L0.84375 14.9601C0.28125 14.4164 0 13.6758 0 12.8601C0 12.0445 0.28125 11.3133 0.84375 10.7601L10.2469 0.878893C11.3625 -0.292982 13.1812 -0.292982 14.2969 0.878893C15.4125 2.05077 15.4125 3.94452 14.2969 5.11639L9.77812 9.84139H30.1219C31.7156 9.84139 33 11.182 33 12.8414C33 14.5008 31.7156 15.8414 30.1313 15.8414H9.7875L14.3063 20.5664C15.4219 21.7383 15.4219 23.632 14.3063 24.8039C13.1813 25.9758 11.3719 25.9758 10.2469 24.8039Z" fill="white"/>
</svg>
